%YAML 1.1
%TAG !u! tag:unity3d.com,2011:
--- !u!74 &7400000
AnimationClip:
  m_ObjectHideFlags: 0
  m_CorrespondingSourceObject: {fileID: 0}
  m_PrefabInstance: {fileID: 0}
  m_PrefabAsset: {fileID: 0}
  m_Name: Spike Loop
  serializedVersion: 6
  m_Legacy: 0
  m_Compressed: 0
  m_UseHighQualityCurve: 1
  m_RotationCurves: []
  m_CompressedRotationCurves: []
  m_EulerCurves: []
  m_PositionCurves: []
  m_ScaleCurves: []
  m_FloatCurves:
  - curve:
      serializedVersion: 2
      m_Curve:
      - serializedVersion: 3
        time: 0
        value: 0.25
        inSlope: 0
        outSlope: 0
        tangentMode: 136
        weightedMode: 0
        inWeight: 0.33333334
        outWeight: 0.33333334
      - serializedVersion: 3
        time: 0.18333334
        value: 0.3
        inSlope: 0
        outSlope: 0
        tangentMode: 136
        weightedMode: 0
        inWeight: 0.33333334
        outWeight: 0.33333334
      - serializedVersion: 3
        time: 0.36666667
        value: 0.25
        inSlope: 0
        outSlope: 0
        tangentMode: 136
        weightedMode: 0
        inWeight: 0.33333334
        outWeight: 0.33333334
      m_PreInfinity: 2
      m_PostInfinity: 2
      m_RotationOrder: 4
    attribute: emmissive.r
    path: 
    classID: 114
    script: {fileID: 11500000, guid: 3ccf56d593f06be419a0380f767937c6, type: 3}
  - curve:
      serializedVersion: 2
      m_Curve:
      - serializedVersion: 3
        time: 0
        value: 0.25
        inSlope: 0
        outSlope: 0
        tangentMode: 136
        weightedMode: 0
        inWeight: 0.33333334
        outWeight: 0.33333334
      - serializedVersion: 3
        time: 0.18333334
        value: 0.3
        inSlope: 0
        outSlope: 0
        tangentMode: 136
        weightedMode: 0
        inWeight: 0.33333334
        outWeight: 0.33333334
      - serializedVersion: 3
        time: 0.36666667
        value: 0.25
        inSlope: 0
        outSlope: 0
        tangentMode: 136
        weightedMode: 0
        inWeight: 0.33333334
        outWeight: 0.33333334
      m_PreInfinity: 2
      m_PostInfinity: 2
      m_RotationOrder: 4
    attribute: emmissive.g
    path: 
    classID: 114
    script: {fileID: 11500000, guid: 3ccf56d593f06be419a0380f767937c6, type: 3}
  - curve:
      serializedVersion: 2
      m_Curve:
      - serializedVersion: 3
        time: 0
        value: 0.25
        inSlope: 0
        outSlope: 0
        tangentMode: 136
        weightedMode: 0
        inWeight: 0.33333334
        outWeight: 0.33333334
      - serializedVersion: 3
        time: 0.18333334
        value: 0.3
        inSlope: 0
        outSlope: 0
        tangentMode: 136
        weightedMode: 0
        inWeight: 0.33333334
        outWeight: 0.33333334
      - serializedVersion: 3
        time: 0.36666667
        value: 0.25
        inSlope: 0
        outSlope: 0
        tangentMode: 136
        weightedMode: 0
        inWeight: 0.33333334
        outWeight: 0.33333334
      m_PreInfinity: 2
      m_PostInfinity: 2
      m_RotationOrder: 4
    attribute: emmissive.b
    path: 
    classID: 114
    script: {fileID: 11500000, guid: 3ccf56d593f06be419a0380f767937c6, type: 3}
  - curve:
      serializedVersion: 2
      m_Curve:
      - serializedVersion: 3
        time: 0
        value: 1
        inSlope: 0
        outSlope: 0
        tangentMode: 136
        weightedMode: 0
        inWeight: 0.33333334
        outWeight: 0.33333334
      - serializedVersion: 3
        time: 0.36666667
        value: 1
        inSlope: 0
        outSlope: 0
        tangentMode: 136
        weightedMode: 0
        inWeight: 0.33333334
        outWeight: 0.33333334
      m_PreInfinity: 2
      m_PostInfinity: 2
      m_RotationOrder: 4
    attribute: emmissive.a
    path: 
    classID: 114
    script: {fileID: 11500000, guid: 3ccf56d593f06be419a0380f767937c6, type: 3}
  m_PPtrCurves:
  - curve:
    - time: 0
      value: {fileID: -4420727891565961627, guid: 58b530b7a5462ff4b916ec515da7a6b7,
        type: 3}
    - time: 0.033333335
      value: {fileID: 3345982411247270840, guid: 58b530b7a5462ff4b916ec515da7a6b7,
        type: 3}
    - time: 0.06666667
      value: {fileID: -5672700189258768313, guid: 58b530b7a5462ff4b916ec515da7a6b7,
        type: 3}
    - time: 0.1
      value: {fileID: -2994467807959808979, guid: 58b530b7a5462ff4b916ec515da7a6b7,
        type: 3}
    - time: 0.13333334
      value: {fileID: -3281639713112717341, guid: 58b530b7a5462ff4b916ec515da7a6b7,
        type: 3}
    - time: 0.16666667
      value: {fileID: -4163304386022089495, guid: 58b530b7a5462ff4b916ec515da7a6b7,
        type: 3}
    - time: 0.2
      value: {fileID: -3659787354302612491, guid: 58b530b7a5462ff4b916ec515da7a6b7,
        type: 3}
    - time: 0.23333333
      value: {fileID: 7348326901718269037, guid: 58b530b7a5462ff4b916ec515da7a6b7,
        type: 3}
    - time: 0.26666668
      value: {fileID: 4512926814216811862, guid: 58b530b7a5462ff4b916ec515da7a6b7,
        type: 3}
    - time: 0.3
      value: {fileID: 2872852011076087908, guid: 58b530b7a5462ff4b916ec515da7a6b7,
        type: 3}
    - time: 0.33333334
      value: {fileID: 6080581946072320317, guid: 58b530b7a5462ff4b916ec515da7a6b7,
        type: 3}
    - time: 0.36666667
      value: {fileID: 2630580075755614261, guid: 58b530b7a5462ff4b916ec515da7a6b7,
        type: 3}
    attribute: rend0
    path: 
    classID: 114
    script: {fileID: 11500000, guid: 3ccf56d593f06be419a0380f767937c6, type: 3}
  - curve:
    - time: 0
      value: {fileID: -7292123814511535387, guid: 58b530b7a5462ff4b916ec515da7a6b7,
        type: 3}
    - time: 0.033333335
      value: {fileID: -2789180653191426023, guid: 58b530b7a5462ff4b916ec515da7a6b7,
        type: 3}
    - time: 0.06666667
      value: {fileID: 6565447511152428347, guid: 58b530b7a5462ff4b916ec515da7a6b7,
        type: 3}
    - time: 0.1
      value: {fileID: 8034491989894281915, guid: 58b530b7a5462ff4b916ec515da7a6b7,
        type: 3}
    - time: 0.13333334
      value: {fileID: -7769402363444848031, guid: 58b530b7a5462ff4b916ec515da7a6b7,
        type: 3}
    - time: 0.16666667
      value: {fileID: 9024660222504058288, guid: 58b530b7a5462ff4b916ec515da7a6b7,
        type: 3}
    - time: 0.2
      value: {fileID: -4289974620176368099, guid: 58b530b7a5462ff4b916ec515da7a6b7,
        type: 3}
    - time: 0.23333333
      value: {fileID: 1091235549841390921, guid: 58b530b7a5462ff4b916ec515da7a6b7,
        type: 3}
    - time: 0.26666668
      value: {fileID: 5700210010314062640, guid: 58b530b7a5462ff4b916ec515da7a6b7,
        type: 3}
    - time: 0.3
      value: {fileID: -2755009274264341954, guid: 58b530b7a5462ff4b916ec515da7a6b7,
        type: 3}
    - time: 0.33333334
      value: {fileID: -6879909557995187227, guid: 58b530b7a5462ff4b916ec515da7a6b7,
        type: 3}
    - time: 0.36666667
      value: {fileID: -6096773854415711479, guid: 58b530b7a5462ff4b916ec515da7a6b7,
        type: 3}
    attribute: rend45
    path: 
    classID: 114
    script: {fileID: 11500000, guid: 3ccf56d593f06be419a0380f767937c6, type: 3}
  - curve:
    - time: 0
      value: {fileID: 6840861240847857238, guid: 58b530b7a5462ff4b916ec515da7a6b7,
        type: 3}
    - time: 0.033333335
      value: {fileID: -3993018047988590004, guid: 58b530b7a5462ff4b916ec515da7a6b7,
        type: 3}
    - time: 0.06666667
      value: {fileID: 4591315262479838186, guid: 58b530b7a5462ff4b916ec515da7a6b7,
        type: 3}
    - time: 0.1
      value: {fileID: 8917438847607108133, guid: 58b530b7a5462ff4b916ec515da7a6b7,
        type: 3}
    - time: 0.13333334
      value: {fileID: -675591017052986743, guid: 58b530b7a5462ff4b916ec515da7a6b7,
        type: 3}
    - time: 0.16666667
      value: {fileID: 4758143010705292270, guid: 58b530b7a5462ff4b916ec515da7a6b7,
        type: 3}
    - time: 0.2
      value: {fileID: 8642966265202643806, guid: 58b530b7a5462ff4b916ec515da7a6b7,
        type: 3}
    - time: 0.23333333
      value: {fileID: 2916057040450036089, guid: 58b530b7a5462ff4b916ec515da7a6b7,
        type: 3}
    - time: 0.26666668
      value: {fileID: 3583346122571447895, guid: 58b530b7a5462ff4b916ec515da7a6b7,
        type: 3}
    - time: 0.3
      value: {fileID: 6454341340102933881, guid: 58b530b7a5462ff4b916ec515da7a6b7,
        type: 3}
    - time: 0.33333334
      value: {fileID: 5378467929496914371, guid: 58b530b7a5462ff4b916ec515da7a6b7,
        type: 3}
    - time: 0.36666667
      value: {fileID: 1860357562660149431, guid: 58b530b7a5462ff4b916ec515da7a6b7,
        type: 3}
    attribute: rend90
    path: 
    classID: 114
    script: {fileID: 11500000, guid: 3ccf56d593f06be419a0380f767937c6, type: 3}
  - curve:
    - time: 0
      value: {fileID: -1638328795657639899, guid: 58b530b7a5462ff4b916ec515da7a6b7,
        type: 3}
    - time: 0.033333335
      value: {fileID: -8425806017769647562, guid: 58b530b7a5462ff4b916ec515da7a6b7,
        type: 3}
    - time: 0.06666667
      value: {fileID: -5566980755895307519, guid: 58b530b7a5462ff4b916ec515da7a6b7,
        type: 3}
    - time: 0.1
      value: {fileID: -8092146326917416424, guid: 58b530b7a5462ff4b916ec515da7a6b7,
        type: 3}
    - time: 0.13333334
      value: {fileID: -364852422268863725, guid: 58b530b7a5462ff4b916ec515da7a6b7,
        type: 3}
    - time: 0.16666667
      value: {fileID: 8806392259975081806, guid: 58b530b7a5462ff4b916ec515da7a6b7,
        type: 3}
    - time: 0.2
      value: {fileID: -7428569646438624132, guid: 58b530b7a5462ff4b916ec515da7a6b7,
        type: 3}
    - time: 0.23333333
      value: {fileID: -5712823824513565785, guid: 58b530b7a5462ff4b916ec515da7a6b7,
        type: 3}
    - time: 0.26666668
      value: {fileID: 7688227923387287484, guid: 58b530b7a5462ff4b916ec515da7a6b7,
        type: 3}
    - time: 0.3
      value: {fileID: -5279433663921651302, guid: 58b530b7a5462ff4b916ec515da7a6b7,
        type: 3}
    - time: 0.33333334
      value: {fileID: 1164653878157163377, guid: 58b530b7a5462ff4b916ec515da7a6b7,
        type: 3}
    - time: 0.36666667
      value: {fileID: 6593919526917891143, guid: 58b530b7a5462ff4b916ec515da7a6b7,
        type: 3}
    attribute: rend135
    path: 
    classID: 114
    script: {fileID: 11500000, guid: 3ccf56d593f06be419a0380f767937c6, type: 3}
  - curve:
    - time: 0
      value: {fileID: 5988246520443566491, guid: 58b530b7a5462ff4b916ec515da7a6b7,
        type: 3}
    - time: 0.033333335
      value: {fileID: 5963277392231999831, guid: 58b530b7a5462ff4b916ec515da7a6b7,
        type: 3}
    - time: 0.06666667
      value: {fileID: 5626006551240435417, guid: 58b530b7a5462ff4b916ec515da7a6b7,
        type: 3}
    - time: 0.1
      value: {fileID: 1781163457059583862, guid: 58b530b7a5462ff4b916ec515da7a6b7,
        type: 3}
    - time: 0.13333334
      value: {fileID: 5769385709174454860, guid: 58b530b7a5462ff4b916ec515da7a6b7,
        type: 3}
    - time: 0.16666667
      value: {fileID: -8918071215306032066, guid: 58b530b7a5462ff4b916ec515da7a6b7,
        type: 3}
    - time: 0.2
      value: {fileID: 7094107567604967532, guid: 58b530b7a5462ff4b916ec515da7a6b7,
        type: 3}
    - time: 0.23333333
      value: {fileID: -169053548595778210, guid: 58b530b7a5462ff4b916ec515da7a6b7,
        type: 3}
    - time: 0.26666668
      value: {fileID: 1238162591802043978, guid: 58b530b7a5462ff4b916ec515da7a6b7,
        type: 3}
    - time: 0.3
      value: {fileID: 5326463785405518764, guid: 58b530b7a5462ff4b916ec515da7a6b7,
        type: 3}
    - time: 0.33333334
      value: {fileID: 1751609122414183534, guid: 58b530b7a5462ff4b916ec515da7a6b7,
        type: 3}
    - time: 0.36666667
      value: {fileID: 4220716587064173269, guid: 58b530b7a5462ff4b916ec515da7a6b7,
        type: 3}
    attribute: rend180
    path: 
    classID: 114
    script: {fileID: 11500000, guid: 3ccf56d593f06be419a0380f767937c6, type: 3}
  - curve:
    - time: 0
      value: {fileID: 1281401341364603677, guid: 58b530b7a5462ff4b916ec515da7a6b7,
        type: 3}
    - time: 0.033333335
      value: {fileID: 818330710589356118, guid: 58b530b7a5462ff4b916ec515da7a6b7,
        type: 3}
    - time: 0.06666667
      value: {fileID: 4829071395936532991, guid: 58b530b7a5462ff4b916ec515da7a6b7,
        type: 3}
    - time: 0.1
      value: {fileID: 7886002371027782622, guid: 58b530b7a5462ff4b916ec515da7a6b7,
        type: 3}
    - time: 0.13333334
      value: {fileID: 6410996957231058076, guid: 58b530b7a5462ff4b916ec515da7a6b7,
        type: 3}
    - time: 0.16666667
      value: {fileID: 8790892563164347312, guid: 58b530b7a5462ff4b916ec515da7a6b7,
        type: 3}
    - time: 0.2
      value: {fileID: -8746580150919692906, guid: 58b530b7a5462ff4b916ec515da7a6b7,
        type: 3}
    - time: 0.23333333
      value: {fileID: -6702196459139705662, guid: 58b530b7a5462ff4b916ec515da7a6b7,
        type: 3}
    - time: 0.26666668
      value: {fileID: 8414103427261591108, guid: 58b530b7a5462ff4b916ec515da7a6b7,
        type: 3}
    - time: 0.3
      value: {fileID: -5810090216251740193, guid: 58b530b7a5462ff4b916ec515da7a6b7,
        type: 3}
    - time: 0.33333334
      value: {fileID: -8316187106885755355, guid: 58b530b7a5462ff4b916ec515da7a6b7,
        type: 3}
    - time: 0.36666667
      value: {fileID: -8135149168036294833, guid: 58b530b7a5462ff4b916ec515da7a6b7,
        type: 3}
    attribute: rend225
    path: 
    classID: 114
    script: {fileID: 11500000, guid: 3ccf56d593f06be419a0380f767937c6, type: 3}
  - curve:
    - time: 0
      value: {fileID: 393438519499620526, guid: 58b530b7a5462ff4b916ec515da7a6b7,
        type: 3}
    - time: 0.033333335
      value: {fileID: -7389233356672492325, guid: 58b530b7a5462ff4b916ec515da7a6b7,
        type: 3}
    - time: 0.06666667
      value: {fileID: 8478413939998209295, guid: 58b530b7a5462ff4b916ec515da7a6b7,
        type: 3}
    - time: 0.1
      value: {fileID: -4707011814447377346, guid: 58b530b7a5462ff4b916ec515da7a6b7,
        type: 3}
    - time: 0.13333334
      value: {fileID: 4252069891210530060, guid: 58b530b7a5462ff4b916ec515da7a6b7,
        type: 3}
    - time: 0.16666667
      value: {fileID: -6962099856722662540, guid: 58b530b7a5462ff4b916ec515da7a6b7,
        type: 3}
    - time: 0.2
      value: {fileID: -4951968671015204985, guid: 58b530b7a5462ff4b916ec515da7a6b7,
        type: 3}
    - time: 0.23333333
      value: {fileID: 7967429538414339590, guid: 58b530b7a5462ff4b916ec515da7a6b7,
        type: 3}
    - time: 0.26666668
      value: {fileID: -4029292736539821397, guid: 58b530b7a5462ff4b916ec515da7a6b7,
        type: 3}
    - time: 0.3
      value: {fileID: 1381872808255996801, guid: 58b530b7a5462ff4b916ec515da7a6b7,
        type: 3}
    - time: 0.33333334
      value: {fileID: -6437243466263182699, guid: 58b530b7a5462ff4b916ec515da7a6b7,
        type: 3}
    - time: 0.36666667
      value: {fileID: 1377027257631037809, guid: 58b530b7a5462ff4b916ec515da7a6b7,
        type: 3}
    attribute: rend270
    path: 
    classID: 114
    script: {fileID: 11500000, guid: 3ccf56d593f06be419a0380f767937c6, type: 3}
  - curve:
    - time: 0
      value: {fileID: -4769351067131164568, guid: 58b530b7a5462ff4b916ec515da7a6b7,
        type: 3}
    - time: 0.033333335
      value: {fileID: -1914673380760468688, guid: 58b530b7a5462ff4b916ec515da7a6b7,
        type: 3}
    - time: 0.06666667
      value: {fileID: -4475332751762798614, guid: 58b530b7a5462ff4b916ec515da7a6b7,
        type: 3}
    - time: 0.1
      value: {fileID: 7453361352791860489, guid: 58b530b7a5462ff4b916ec515da7a6b7,
        type: 3}
    - time: 0.13333334
      value: {fileID: -1245303104839679974, guid: 58b530b7a5462ff4b916ec515da7a6b7,
        type: 3}
    - time: 0.16666667
      value: {fileID: 2524053262867332303, guid: 58b530b7a5462ff4b916ec515da7a6b7,
        type: 3}
    - time: 0.2
      value: {fileID: -7872736150135935941, guid: 58b530b7a5462ff4b916ec515da7a6b7,
        type: 3}
    - time: 0.23333333
      value: {fileID: 1400316740525191616, guid: 58b530b7a5462ff4b916ec515da7a6b7,
        type: 3}
    - time: 0.26666668
      value: {fileID: 3458844932571294106, guid: 58b530b7a5462ff4b916ec515da7a6b7,
        type: 3}
    - time: 0.3
      value: {fileID: 9154667869135836245, guid: 58b530b7a5462ff4b916ec515da7a6b7,
        type: 3}
    - time: 0.33333334
      value: {fileID: 8965262907559466648, guid: 58b530b7a5462ff4b916ec515da7a6b7,
        type: 3}
    - time: 0.36666667
      value: {fileID: -8430731357308089957, guid: 58b530b7a5462ff4b916ec515da7a6b7,
        type: 3}
    attribute: rend315
    path: 
    classID: 114
    script: {fileID: 11500000, guid: 3ccf56d593f06be419a0380f767937c6, type: 3}
  m_SampleRate: 60
  m_WrapMode: 0
  m_Bounds:
    m_Center: {x: 0, y: 0, z: 0}
    m_Extent: {x: 0, y: 0, z: 0}
  m_ClipBindingConstant:
    genericBindings:
    - serializedVersion: 2
      path: 0
      attribute: 2110101095
      script: {fileID: 11500000, guid: 3ccf56d593f06be419a0380f767937c6, type: 3}
      typeID: 114
      customType: 0
      isPPtrCurve: 0
    - serializedVersion: 2
      path: 0
      attribute: 270037644
      script: {fileID: 11500000, guid: 3ccf56d593f06be419a0380f767937c6, type: 3}
      typeID: 114
      customType: 0
      isPPtrCurve: 0
    - serializedVersion: 2
      path: 0
      attribute: 1618118147
      script: {fileID: 11500000, guid: 3ccf56d593f06be419a0380f767937c6, type: 3}
      typeID: 114
      customType: 0
      isPPtrCurve: 0
    - serializedVersion: 2
      path: 0
      attribute: 751385510
      script: {fileID: 11500000, guid: 3ccf56d593f06be419a0380f767937c6, type: 3}
      typeID: 114
      customType: 0
      isPPtrCurve: 1
    - serializedVersion: 2
      path: 0
      attribute: 3745784140
      script: {fileID: 11500000, guid: 3ccf56d593f06be419a0380f767937c6, type: 3}
      typeID: 114
      customType: 0
      isPPtrCurve: 1
    - serializedVersion: 2
      path: 0
      attribute: 444640142
      script: {fileID: 11500000, guid: 3ccf56d593f06be419a0380f767937c6, type: 3}
      typeID: 114
      customType: 0
      isPPtrCurve: 1
    - serializedVersion: 2
      path: 0
      attribute: 2878670681
      script: {fileID: 11500000, guid: 3ccf56d593f06be419a0380f767937c6, type: 3}
      typeID: 114
      customType: 0
      isPPtrCurve: 1
    - serializedVersion: 2
      path: 0
      attribute: 940255773
      script: {fileID: 11500000, guid: 3ccf56d593f06be419a0380f767937c6, type: 3}
      typeID: 114
      customType: 0
      isPPtrCurve: 1
    - serializedVersion: 2
      path: 0
      attribute: 2965932097
      script: {fileID: 11500000, guid: 3ccf56d593f06be419a0380f767937c6, type: 3}
      typeID: 114
      customType: 0
      isPPtrCurve: 1
    - serializedVersion: 2
      path: 0
      attribute: 3184887947
      script: {fileID: 11500000, guid: 3ccf56d593f06be419a0380f767937c6, type: 3}
      typeID: 114
      customType: 0
      isPPtrCurve: 1
    - serializedVersion: 2
      path: 0
      attribute: 2586292661
      script: {fileID: 11500000, guid: 3ccf56d593f06be419a0380f767937c6, type: 3}
      typeID: 114
      customType: 0
      isPPtrCurve: 1
    - serializedVersion: 2
      path: 0
      attribute: 4185642937
      script: {fileID: 11500000, guid: 3ccf56d593f06be419a0380f767937c6, type: 3}
      typeID: 114
      customType: 0
      isPPtrCurve: 0
    pptrCurveMapping:
    - {fileID: -4420727891565961627, guid: 58b530b7a5462ff4b916ec515da7a6b7, type: 3}
    - {fileID: 3345982411247270840, guid: 58b530b7a5462ff4b916ec515da7a6b7, type: 3}
    - {fileID: -5672700189258768313, guid: 58b530b7a5462ff4b916ec515da7a6b7, type: 3}
    - {fileID: -2994467807959808979, guid: 58b530b7a5462ff4b916ec515da7a6b7, type: 3}
    - {fileID: -3281639713112717341, guid: 58b530b7a5462ff4b916ec515da7a6b7, type: 3}
    - {fileID: -4163304386022089495, guid: 58b530b7a5462ff4b916ec515da7a6b7, type: 3}
    - {fileID: -3659787354302612491, guid: 58b530b7a5462ff4b916ec515da7a6b7, type: 3}
    - {fileID: 7348326901718269037, guid: 58b530b7a5462ff4b916ec515da7a6b7, type: 3}
    - {fileID: 4512926814216811862, guid: 58b530b7a5462ff4b916ec515da7a6b7, type: 3}
    - {fileID: 2872852011076087908, guid: 58b530b7a5462ff4b916ec515da7a6b7, type: 3}
    - {fileID: 6080581946072320317, guid: 58b530b7a5462ff4b916ec515da7a6b7, type: 3}
    - {fileID: 2630580075755614261, guid: 58b530b7a5462ff4b916ec515da7a6b7, type: 3}
    - {fileID: -7292123814511535387, guid: 58b530b7a5462ff4b916ec515da7a6b7, type: 3}
    - {fileID: -2789180653191426023, guid: 58b530b7a5462ff4b916ec515da7a6b7, type: 3}
    - {fileID: 6565447511152428347, guid: 58b530b7a5462ff4b916ec515da7a6b7, type: 3}
    - {fileID: 8034491989894281915, guid: 58b530b7a5462ff4b916ec515da7a6b7, type: 3}
    - {fileID: -7769402363444848031, guid: 58b530b7a5462ff4b916ec515da7a6b7, type: 3}
    - {fileID: 9024660222504058288, guid: 58b530b7a5462ff4b916ec515da7a6b7, type: 3}
    - {fileID: -4289974620176368099, guid: 58b530b7a5462ff4b916ec515da7a6b7, type: 3}
    - {fileID: 1091235549841390921, guid: 58b530b7a5462ff4b916ec515da7a6b7, type: 3}
    - {fileID: 5700210010314062640, guid: 58b530b7a5462ff4b916ec515da7a6b7, type: 3}
    - {fileID: -2755009274264341954, guid: 58b530b7a5462ff4b916ec515da7a6b7, type: 3}
    - {fileID: -6879909557995187227, guid: 58b530b7a5462ff4b916ec515da7a6b7, type: 3}
    - {fileID: -6096773854415711479, guid: 58b530b7a5462ff4b916ec515da7a6b7, type: 3}
    - {fileID: 6840861240847857238, guid: 58b530b7a5462ff4b916ec515da7a6b7, type: 3}
    - {fileID: -3993018047988590004, guid: 58b530b7a5462ff4b916ec515da7a6b7, type: 3}
    - {fileID: 4591315262479838186, guid: 58b530b7a5462ff4b916ec515da7a6b7, type: 3}
    - {fileID: 8917438847607108133, guid: 58b530b7a5462ff4b916ec515da7a6b7, type: 3}
    - {fileID: -675591017052986743, guid: 58b530b7a5462ff4b916ec515da7a6b7, type: 3}
    - {fileID: 4758143010705292270, guid: 58b530b7a5462ff4b916ec515da7a6b7, type: 3}
    - {fileID: 8642966265202643806, guid: 58b530b7a5462ff4b916ec515da7a6b7, type: 3}
    - {fileID: 2916057040450036089, guid: 58b530b7a5462ff4b916ec515da7a6b7, type: 3}
    - {fileID: 3583346122571447895, guid: 58b530b7a5462ff4b916ec515da7a6b7, type: 3}
    - {fileID: 6454341340102933881, guid: 58b530b7a5462ff4b916ec515da7a6b7, type: 3}
    - {fileID: 5378467929496914371, guid: 58b530b7a5462ff4b916ec515da7a6b7, type: 3}
    - {fileID: 1860357562660149431, guid: 58b530b7a5462ff4b916ec515da7a6b7, type: 3}
    - {fileID: -1638328795657639899, guid: 58b530b7a5462ff4b916ec515da7a6b7, type: 3}
    - {fileID: -8425806017769647562, guid: 58b530b7a5462ff4b916ec515da7a6b7, type: 3}
    - {fileID: -5566980755895307519, guid: 58b530b7a5462ff4b916ec515da7a6b7, type: 3}
    - {fileID: -8092146326917416424, guid: 58b530b7a5462ff4b916ec515da7a6b7, type: 3}
    - {fileID: -364852422268863725, guid: 58b530b7a5462ff4b916ec515da7a6b7, type: 3}
    - {fileID: 8806392259975081806, guid: 58b530b7a5462ff4b916ec515da7a6b7, type: 3}
    - {fileID: -7428569646438624132, guid: 58b530b7a5462ff4b916ec515da7a6b7, type: 3}
    - {fileID: -5712823824513565785, guid: 58b530b7a5462ff4b916ec515da7a6b7, type: 3}
    - {fileID: 7688227923387287484, guid: 58b530b7a5462ff4b916ec515da7a6b7, type: 3}
    - {fileID: -5279433663921651302, guid: 58b530b7a5462ff4b916ec515da7a6b7, type: 3}
    - {fileID: 1164653878157163377, guid: 58b530b7a5462ff4b916ec515da7a6b7, type: 3}
    - {fileID: 6593919526917891143, guid: 58b530b7a5462ff4b916ec515da7a6b7, type: 3}
    - {fileID: 5988246520443566491, guid: 58b530b7a5462ff4b916ec515da7a6b7, type: 3}
    - {fileID: 5963277392231999831, guid: 58b530b7a5462ff4b916ec515da7a6b7, type: 3}
    - {fileID: 5626006551240435417, guid: 58b530b7a5462ff4b916ec515da7a6b7, type: 3}
    - {fileID: 1781163457059583862, guid: 58b530b7a5462ff4b916ec515da7a6b7, type: 3}
    - {fileID: 5769385709174454860, guid: 58b530b7a5462ff4b916ec515da7a6b7, type: 3}
    - {fileID: -8918071215306032066, guid: 58b530b7a5462ff4b916ec515da7a6b7, type: 3}
    - {fileID: 7094107567604967532, guid: 58b530b7a5462ff4b916ec515da7a6b7, type: 3}
    - {fileID: -169053548595778210, guid: 58b530b7a5462ff4b916ec515da7a6b7, type: 3}
    - {fileID: 1238162591802043978, guid: 58b530b7a5462ff4b916ec515da7a6b7, type: 3}
    - {fileID: 5326463785405518764, guid: 58b530b7a5462ff4b916ec515da7a6b7, type: 3}
    - {fileID: 1751609122414183534, guid: 58b530b7a5462ff4b916ec515da7a6b7, type: 3}
    - {fileID: 4220716587064173269, guid: 58b530b7a5462ff4b916ec515da7a6b7, type: 3}
    - {fileID: 1281401341364603677, guid: 58b530b7a5462ff4b916ec515da7a6b7, type: 3}
    - {fileID: 818330710589356118, guid: 58b530b7a5462ff4b916ec515da7a6b7, type: 3}
    - {fileID: 4829071395936532991, guid: 58b530b7a5462ff4b916ec515da7a6b7, type: 3}
    - {fileID: 7886002371027782622, guid: 58b530b7a5462ff4b916ec515da7a6b7, type: 3}
    - {fileID: 6410996957231058076, guid: 58b530b7a5462ff4b916ec515da7a6b7, type: 3}
    - {fileID: 8790892563164347312, guid: 58b530b7a5462ff4b916ec515da7a6b7, type: 3}
    - {fileID: -8746580150919692906, guid: 58b530b7a5462ff4b916ec515da7a6b7, type: 3}
    - {fileID: -6702196459139705662, guid: 58b530b7a5462ff4b916ec515da7a6b7, type: 3}
    - {fileID: 8414103427261591108, guid: 58b530b7a5462ff4b916ec515da7a6b7, type: 3}
    - {fileID: -5810090216251740193, guid: 58b530b7a5462ff4b916ec515da7a6b7, type: 3}
    - {fileID: -8316187106885755355, guid: 58b530b7a5462ff4b916ec515da7a6b7, type: 3}
    - {fileID: -8135149168036294833, guid: 58b530b7a5462ff4b916ec515da7a6b7, type: 3}
    - {fileID: 393438519499620526, guid: 58b530b7a5462ff4b916ec515da7a6b7, type: 3}
    - {fileID: -7389233356672492325, guid: 58b530b7a5462ff4b916ec515da7a6b7, type: 3}
    - {fileID: 8478413939998209295, guid: 58b530b7a5462ff4b916ec515da7a6b7, type: 3}
    - {fileID: -4707011814447377346, guid: 58b530b7a5462ff4b916ec515da7a6b7, type: 3}
    - {fileID: 4252069891210530060, guid: 58b530b7a5462ff4b916ec515da7a6b7, type: 3}
    - {fileID: -6962099856722662540, guid: 58b530b7a5462ff4b916ec515da7a6b7, type: 3}
    - {fileID: -4951968671015204985, guid: 58b530b7a5462ff4b916ec515da7a6b7, type: 3}
    - {fileID: 7967429538414339590, guid: 58b530b7a5462ff4b916ec515da7a6b7, type: 3}
    - {fileID: -4029292736539821397, guid: 58b530b7a5462ff4b916ec515da7a6b7, type: 3}
    - {fileID: 1381872808255996801, guid: 58b530b7a5462ff4b916ec515da7a6b7, type: 3}
    - {fileID: -6437243466263182699, guid: 58b530b7a5462ff4b916ec515da7a6b7, type: 3}
    - {fileID: 1377027257631037809, guid: 58b530b7a5462ff4b916ec515da7a6b7, type: 3}
    - {fileID: -4769351067131164568, guid: 58b530b7a5462ff4b916ec515da7a6b7, type: 3}
    - {fileID: -1914673380760468688, guid: 58b530b7a5462ff4b916ec515da7a6b7, type: 3}
    - {fileID: -4475332751762798614, guid: 58b530b7a5462ff4b916ec515da7a6b7, type: 3}
    - {fileID: 7453361352791860489, guid: 58b530b7a5462ff4b916ec515da7a6b7, type: 3}
    - {fileID: -1245303104839679974, guid: 58b530b7a5462ff4b916ec515da7a6b7, type: 3}
    - {fileID: 2524053262867332303, guid: 58b530b7a5462ff4b916ec515da7a6b7, type: 3}
    - {fileID: -7872736150135935941, guid: 58b530b7a5462ff4b916ec515da7a6b7, type: 3}
    - {fileID: 1400316740525191616, guid: 58b530b7a5462ff4b916ec515da7a6b7, type: 3}
    - {fileID: 3458844932571294106, guid: 58b530b7a5462ff4b916ec515da7a6b7, type: 3}
    - {fileID: 9154667869135836245, guid: 58b530b7a5462ff4b916ec515da7a6b7, type: 3}
    - {fileID: 8965262907559466648, guid: 58b530b7a5462ff4b916ec515da7a6b7, type: 3}
    - {fileID: -8430731357308089957, guid: 58b530b7a5462ff4b916ec515da7a6b7, type: 3}
  m_AnimationClipSettings:
    serializedVersion: 2
    m_AdditiveReferencePoseClip: {fileID: 0}
    m_AdditiveReferencePoseTime: 0
    m_StartTime: 0
    m_StopTime: 0.38333336
    m_OrientationOffsetY: 0
    m_Level: 0
    m_CycleOffset: 0
    m_HasAdditiveReferencePose: 0
    m_LoopTime: 1
    m_LoopBlend: 0
    m_LoopBlendOrientation: 0
    m_LoopBlendPositionY: 0
    m_LoopBlendPositionXZ: 0
    m_KeepOriginalOrientation: 0
    m_KeepOriginalPositionY: 1
    m_KeepOriginalPositionXZ: 0
    m_HeightFromFeet: 0
    m_Mirror: 0
  m_EditorCurves:
  - curve:
      serializedVersion: 2
      m_Curve:
      - serializedVersion: 3
        time: 0
        value: 0.25
        inSlope: 0
        outSlope: 0
        tangentMode: 136
        weightedMode: 0
        inWeight: 0.33333334
        outWeight: 0.33333334
      - serializedVersion: 3
        time: 0.18333334
        value: 0.3
        inSlope: 0
        outSlope: 0
        tangentMode: 136
        weightedMode: 0
        inWeight: 0.33333334
        outWeight: 0.33333334
      - serializedVersion: 3
        time: 0.36666667
        value: 0.25
        inSlope: 0
        outSlope: 0
        tangentMode: 136
        weightedMode: 0
        inWeight: 0.33333334
        outWeight: 0.33333334
      m_PreInfinity: 2
      m_PostInfinity: 2
      m_RotationOrder: 4
    attribute: emmissive.r
    path: 
    classID: 114
    script: {fileID: 11500000, guid: 3ccf56d593f06be419a0380f767937c6, type: 3}
  - curve:
      serializedVersion: 2
      m_Curve:
      - serializedVersion: 3
        time: 0
        value: 0.25
        inSlope: 0
        outSlope: 0
        tangentMode: 136
        weightedMode: 0
        inWeight: 0.33333334
        outWeight: 0.33333334
      - serializedVersion: 3
        time: 0.18333334
        value: 0.3
        inSlope: 0
        outSlope: 0
        tangentMode: 136
        weightedMode: 0
        inWeight: 0.33333334
        outWeight: 0.33333334
      - serializedVersion: 3
        time: 0.36666667
        value: 0.25
        inSlope: 0
        outSlope: 0
        tangentMode: 136
        weightedMode: 0
        inWeight: 0.33333334
        outWeight: 0.33333334
      m_PreInfinity: 2
      m_PostInfinity: 2
      m_RotationOrder: 4
    attribute: emmissive.g
    path: 
    classID: 114
    script: {fileID: 11500000, guid: 3ccf56d593f06be419a0380f767937c6, type: 3}
  - curve:
      serializedVersion: 2
      m_Curve:
      - serializedVersion: 3
        time: 0
        value: 0.25
        inSlope: 0
        outSlope: 0
        tangentMode: 136
        weightedMode: 0
        inWeight: 0.33333334
        outWeight: 0.33333334
      - serializedVersion: 3
        time: 0.18333334
        value: 0.3
        inSlope: 0
        outSlope: 0
        tangentMode: 136
        weightedMode: 0
        inWeight: 0.33333334
        outWeight: 0.33333334
      - serializedVersion: 3
        time: 0.36666667
        value: 0.25
        inSlope: 0
        outSlope: 0
        tangentMode: 136
        weightedMode: 0
        inWeight: 0.33333334
        outWeight: 0.33333334
      m_PreInfinity: 2
      m_PostInfinity: 2
      m_RotationOrder: 4
    attribute: emmissive.b
    path: 
    classID: 114
    script: {fileID: 11500000, guid: 3ccf56d593f06be419a0380f767937c6, type: 3}
  - curve:
      serializedVersion: 2
      m_Curve:
      - serializedVersion: 3
        time: 0
        value: 1
        inSlope: 0
        outSlope: 0
        tangentMode: 136
        weightedMode: 0
        inWeight: 0.33333334
        outWeight: 0.33333334
      - serializedVersion: 3
        time: 0.36666667
        value: 1
        inSlope: 0
        outSlope: 0
        tangentMode: 136
        weightedMode: 0
        inWeight: 0.33333334
        outWeight: 0.33333334
      m_PreInfinity: 2
      m_PostInfinity: 2
      m_RotationOrder: 4
    attribute: emmissive.a
    path: 
    classID: 114
    script: {fileID: 11500000, guid: 3ccf56d593f06be419a0380f767937c6, type: 3}
  m_EulerEditorCurves: []
  m_HasGenericRootTransform: 0
  m_HasMotionFloatCurves: 0
  m_Events: []
