%YAML 1.1
%TAG !u! tag:unity3d.com,2011:
--- !u!1 &1703145133496386960
GameObject:
  m_ObjectHideFlags: 0
  m_CorrespondingSourceObject: {fileID: 0}
  m_PrefabInstance: {fileID: 0}
  m_PrefabAsset: {fileID: 0}
  serializedVersion: 6
  m_Component:
  - component: {fileID: 4661270628741807679}
  - component: {fileID: 4428447751825101759}
  m_Layer: 0
  m_Name: SceneVars
  m_TagString: Untagged
  m_Icon: {fileID: 0}
  m_NavMeshLayer: 0
  m_StaticEditorFlags: 0
  m_IsActive: 1
--- !u!4 &4661270628741807679
Transform:
  m_ObjectHideFlags: 0
  m_CorrespondingSourceObject: {fileID: 0}
  m_PrefabInstance: {fileID: 0}
  m_PrefabAsset: {fileID: 0}
  m_GameObject: {fileID: 1703145133496386960}
  m_LocalRotation: {x: 0, y: 0, z: 0, w: 1}
  m_LocalPosition: {x: 0, y: 0, z: 0}
  m_LocalScale: {x: 1, y: 1, z: 1}
  m_Children: []
  m_Father: {fileID: 0}
  m_RootOrder: 0
  m_LocalEulerAnglesHint: {x: 0, y: 0, z: 0}
--- !u!114 &4428447751825101759
MonoBehaviour:
  m_ObjectHideFlags: 0
  m_CorrespondingSourceObject: {fileID: 0}
  m_PrefabInstance: {fileID: 0}
  m_PrefabAsset: {fileID: 0}
  m_GameObject: {fileID: 1703145133496386960}
  m_Enabled: 1
  m_EditorHideFlags: 0
  m_Script: {fileID: 11500000, guid: c72496647076e4644958ca9533281a5a, type: 3}
  m_Name: 
  m_EditorClassIdentifier: 
  boilerplatePrefab: {fileID: 8189003068016328314, guid: 852d4c3c7579e4f4a8a1d325c4e38dd2,
    type: 3}
  musicInScene: {fileID: 0}
  dialogueOnStart: {fileID: 0}
  foodPrefab: {fileID: 2031862973278314197, guid: e65a803c9fcbc9942a3485f1b4d4bb08,
    type: 3}
  deadPrefab: {fileID: 6393935670127056245, guid: 5148c8ac73fe207438d32f74ff18f6a3,
    type: 3}
