%YAML 1.1
%TAG !u! tag:unity3d.com,2011:
--- !u!74 &7400000
AnimationClip:
  m_ObjectHideFlags: 0
  m_CorrespondingSourceObject: {fileID: 0}
  m_PrefabInstance: {fileID: 0}
  m_PrefabAsset: {fileID: 0}
  m_Name: Bullet Loop
  serializedVersion: 6
  m_Legacy: 0
  m_Compressed: 0
  m_UseHighQualityCurve: 1
  m_RotationCurves: []
  m_CompressedRotationCurves: []
  m_EulerCurves: []
  m_PositionCurves: []
  m_ScaleCurves: []
  m_FloatCurves: []
  m_PPtrCurves:
  - curve:
    - time: 0
      value: {fileID: -8412467053573618049, guid: da65030998495cd46910aad3d80558ba,
        type: 3}
    attribute: m_Sprite
    path: 
    classID: 212
    script: {fileID: 0}
  - curve:
    - time: 0
      value: {fileID: -63879281949213365, guid: da65030998495cd46910aad3d80558ba,
        type: 3}
    - time: 0.016666668
      value: {fileID: -8412467053573618049, guid: da65030998495cd46910aad3d80558ba,
        type: 3}
    - time: 0.033333335
      value: {fileID: -6995386232888765701, guid: da65030998495cd46910aad3d80558ba,
        type: 3}
    - time: 0.05
      value: {fileID: -6084992108393825339, guid: da65030998495cd46910aad3d80558ba,
        type: 3}
    - time: 0.06666667
      value: {fileID: -6254802142653301706, guid: da65030998495cd46910aad3d80558ba,
        type: 3}
    - time: 0.083333336
      value: {fileID: 5068186378868369896, guid: da65030998495cd46910aad3d80558ba,
        type: 3}
    - time: 0.1
      value: {fileID: 1615773852148542058, guid: da65030998495cd46910aad3d80558ba,
        type: 3}
    - time: 0.11666667
      value: {fileID: 4271571544514611166, guid: da65030998495cd46910aad3d80558ba,
        type: 3}
    - time: 0.13333334
      value: {fileID: 3514415533864240916, guid: da65030998495cd46910aad3d80558ba,
        type: 3}
    - time: 0.15
      value: {fileID: 4271571544514611166, guid: da65030998495cd46910aad3d80558ba,
        type: 3}
    - time: 0.16666667
      value: {fileID: 1615773852148542058, guid: da65030998495cd46910aad3d80558ba,
        type: 3}
    - time: 0.18333334
      value: {fileID: 5068186378868369896, guid: da65030998495cd46910aad3d80558ba,
        type: 3}
    - time: 0.2
      value: {fileID: -6254802142653301706, guid: da65030998495cd46910aad3d80558ba,
        type: 3}
    - time: 0.21666667
      value: {fileID: -6084992108393825339, guid: da65030998495cd46910aad3d80558ba,
        type: 3}
    - time: 0.23333333
      value: {fileID: -6995386232888765701, guid: da65030998495cd46910aad3d80558ba,
        type: 3}
    - time: 0.25
      value: {fileID: -8412467053573618049, guid: da65030998495cd46910aad3d80558ba,
        type: 3}
    - time: 0.26666668
      value: {fileID: -63879281949213365, guid: da65030998495cd46910aad3d80558ba,
        type: 3}
    attribute: rend0
    path: Square
    classID: 114
    script: {fileID: 11500000, guid: 3ccf56d593f06be419a0380f767937c6, type: 3}
  m_SampleRate: 60
  m_WrapMode: 0
  m_Bounds:
    m_Center: {x: 0, y: 0, z: 0}
    m_Extent: {x: 0, y: 0, z: 0}
  m_ClipBindingConstant:
    genericBindings:
    - serializedVersion: 2
      path: 0
      attribute: 0
      script: {fileID: 0}
      typeID: 212
      customType: 23
      isPPtrCurve: 1
    - serializedVersion: 2
      path: 3394203039
      attribute: 751385510
      script: {fileID: 11500000, guid: 3ccf56d593f06be419a0380f767937c6, type: 3}
      typeID: 114
      customType: 0
      isPPtrCurve: 1
    pptrCurveMapping:
    - {fileID: -8412467053573618049, guid: da65030998495cd46910aad3d80558ba, type: 3}
    - {fileID: -63879281949213365, guid: da65030998495cd46910aad3d80558ba, type: 3}
    - {fileID: -8412467053573618049, guid: da65030998495cd46910aad3d80558ba, type: 3}
    - {fileID: -6995386232888765701, guid: da65030998495cd46910aad3d80558ba, type: 3}
    - {fileID: -6084992108393825339, guid: da65030998495cd46910aad3d80558ba, type: 3}
    - {fileID: -6254802142653301706, guid: da65030998495cd46910aad3d80558ba, type: 3}
    - {fileID: 5068186378868369896, guid: da65030998495cd46910aad3d80558ba, type: 3}
    - {fileID: 1615773852148542058, guid: da65030998495cd46910aad3d80558ba, type: 3}
    - {fileID: 4271571544514611166, guid: da65030998495cd46910aad3d80558ba, type: 3}
    - {fileID: 3514415533864240916, guid: da65030998495cd46910aad3d80558ba, type: 3}
    - {fileID: 4271571544514611166, guid: da65030998495cd46910aad3d80558ba, type: 3}
    - {fileID: 1615773852148542058, guid: da65030998495cd46910aad3d80558ba, type: 3}
    - {fileID: 5068186378868369896, guid: da65030998495cd46910aad3d80558ba, type: 3}
    - {fileID: -6254802142653301706, guid: da65030998495cd46910aad3d80558ba, type: 3}
    - {fileID: -6084992108393825339, guid: da65030998495cd46910aad3d80558ba, type: 3}
    - {fileID: -6995386232888765701, guid: da65030998495cd46910aad3d80558ba, type: 3}
    - {fileID: -8412467053573618049, guid: da65030998495cd46910aad3d80558ba, type: 3}
    - {fileID: -63879281949213365, guid: da65030998495cd46910aad3d80558ba, type: 3}
  m_AnimationClipSettings:
    serializedVersion: 2
    m_AdditiveReferencePoseClip: {fileID: 0}
    m_AdditiveReferencePoseTime: 0
    m_StartTime: 0
    m_StopTime: 0.28333336
    m_OrientationOffsetY: 0
    m_Level: 0
    m_CycleOffset: 0
    m_HasAdditiveReferencePose: 0
    m_LoopTime: 1
    m_LoopBlend: 0
    m_LoopBlendOrientation: 0
    m_LoopBlendPositionY: 0
    m_LoopBlendPositionXZ: 0
    m_KeepOriginalOrientation: 0
    m_KeepOriginalPositionY: 1
    m_KeepOriginalPositionXZ: 0
    m_HeightFromFeet: 0
    m_Mirror: 0
  m_EditorCurves: []
  m_EulerEditorCurves: []
  m_HasGenericRootTransform: 0
  m_HasMotionFloatCurves: 0
  m_Events: []
